<?xml version="1.0" encoding="UTF-8" standalone="no"?>
<svg
   xmlns:dc="http://purl.org/dc/elements/1.1/"
   xmlns:cc="http://creativecommons.org/ns#"
   xmlns:rdf="http://www.w3.org/1999/02/22-rdf-syntax-ns#"
   xmlns:svg="http://www.w3.org/2000/svg"
   xmlns="http://www.w3.org/2000/svg"
   xmlns:sodipodi="http://sodipodi.sourceforge.net/DTD/sodipodi-0.dtd"
   xmlns:inkscape="http://www.inkscape.org/namespaces/inkscape"
   width="45.475128"
   height="41.336529"
   viewBox="0 0 45.475129 41.336528"
   version="1.1"
   id="svg8"
   sodipodi:docname="Capgemini-Logo-2017.svg"
   inkscape:version="0.92.1 r15371">
  <metadata
     id="metadata14">
    <rdf:RDF>
      <cc:Work
         rdf:about="">
        <dc:format>image/svg+xml</dc:format>
        <dc:type
           rdf:resource="http://purl.org/dc/dcmitype/StillImage" />
        <dc:title></dc:title>
      </cc:Work>
    </rdf:RDF>
  </metadata>
  <defs
     id="defs12">
    <clipPath
       clipPathUnits="userSpaceOnUse"
       id="clipPath4497">
      <rect
         style="fill:#ffffff;fill-opacity:1;stroke:none;stroke-width:26.88530922;stroke-miterlimit:4;stroke-dasharray:none;stroke-opacity:1"
         id="rect4499"
         width="37.106037"
         height="39.507725"
         x="139.77809"
         y="-6.6713486" />
    </clipPath>
    <clipPath
       clipPathUnits="userSpaceOnUse"
       id="clipPath4527">
      <rect
         style="fill:#ffffff;fill-opacity:1;stroke:none;stroke-width:13.2414732;stroke-miterlimit:4;stroke-dasharray:none;stroke-opacity:1"
         id="rect4529"
         width="35.181953"
         height="29.181292"
         x="138.95609"
         y="-0.619358" />
    </clipPath>
    <clipPath
       clipPathUnits="userSpaceOnUse"
       id="clipPath4531">
      <rect
         style="fill:#ffffff;fill-opacity:1;stroke:none;stroke-width:19.34399986;stroke-miterlimit:4;stroke-dasharray:none;stroke-opacity:1"
         id="rect4533"
         width="51.396069"
         height="42.629917"
         x="-1.2008427"
         y="-1.2933881" />
    </clipPath>
  </defs>
  <sodipodi:namedview
     pagecolor="#ffffff"
     bordercolor="#666666"
     borderopacity="1"
     objecttolerance="10"
     gridtolerance="10"
     guidetolerance="10"
     inkscape:pageopacity="0"
     inkscape:pageshadow="2"
     inkscape:window-width="1600"
     inkscape:window-height="837"
     id="namedview10"
     showgrid="false"
     fit-margin-top="0"
     fit-margin-left="0"
     fit-margin-right="0"
     fit-margin-bottom="0"
     inkscape:zoom="8.3274854"
     inkscape:cx="2.0340103"
     inkscape:cy="8.343208"
     inkscape:window-x="-8"
     inkscape:window-y="-8"
     inkscape:window-maximized="1"
     inkscape:current-layer="svg8" />
  <path
     style="fill:#12abdb;fill-rule:evenodd;stroke-width:1.46086466"
     inkscape:connector-curvature="0"
     id="path2"
     d="m 34.558076,32.770115 c 5.446103,0 9.651933,-4.438107 9.705985,-9.700141 -0.378364,-2.29794 -1.183301,-6.549056 -7.148011,-6.549056 -6.5213,0 -8.68484,9.115795 -13.995083,14.991393 -0.430955,3.342458 -3.590805,6.332848 -7.542443,6.833924 0.970014,1.01384 3.120406,1.558743 5.688606,1.558743 4.703984,0 10.398434,-1.415578 13.377137,-4.356299 -3.973552,0.05113 -6.530065,-2.502461 -6.782794,-6.042136 1.938567,2.349071 4.129864,3.263572 6.696603,3.263572"
     clip-path="url(#clipPath4531)"
     transform="translate(1.2008442)" />
  <path
     style="fill:#0070ad;fill-rule:evenodd"
     inkscape:connector-curvature="0"
     id="path4"
     d="m 134.801,13.035 c 0,-1.981 -0.12,-3.305 -1.416,-3.305 -0.591,0 -0.88,0.116 -1.397,0.289 0.459,6.7 -1.054,12.6 -2.902,12.6 -2.423,0 -1.213,-14.36 -6.348,-14.36 -4.732,0 -5.412,11.463 -5.95,11.463 -0.367,0 -0.422,-3.01 -0.403,-5.304 0.199,-1.102 0.306,-2.088 0.306,-2.838 0,-1.068 -0.434,-2.914 -2.858,-1.991 0.086,8.195 -1.556,13.15 -3.403,13.15 -2.712,0 -2.74,-7.432 -2.74,-9.48 0,-2 0.143,-4.673 -2.828,-3.721 -0.446,7.15 -2.318,12.547 -3.5,12.547 -1.762,0 -1.407,-12.354 -5.217,-12.354 -3.423,0 -4.482,11.7 -5.196,11.7 -1.277,0 0.399,-13.172 -4.545,-13.172 -2.595,0 -3.625,4.399 -4.641,9.32 -0.198,0.954 -0.405,0.982 -0.438,-0.093 A 68.349,68.349 0 0 1 81.301,14.728 C 82.55,9.781 81.026,7.954 78.735,9.272 c 0.738,9.129 -3.451,13.592 -6.667,13.592 -1.163,0 -2.076,-0.494 -2.76,-1.275 3.856,-2.364 5.569,-5.078 5.569,-7.728 0,-2.874 -1.65,-4.528 -4.39,-4.528 -3.826,0 -5.964,3.938 -5.964,7.285 0,1.802 0.335,3.332 0.89,4.594 -1.314,0.627 -2.553,1.169 -3.706,1.695 -0.1,-3.444 -0.49,-7.061 -0.786,-10.397 -2.035,-0.561 -2.63,0.418 -2.787,2.23 -0.36,4.135 -1.892,6.7 -3.246,6.7 -1.02,0 -1.641,-1.24 -1.716,-2.557 -0.378,-6.628 5.003,-8.472 7.816,-7.511 0.584,-1.461 -0.057,-2.514 -2.595,-2.514 -3.08,0 -5.381,1.87 -7.068,4.27 -1.127,1.6 -2.427,2.735 -4.156,4.108 0.044,-0.395 0.068,-0.79 0.068,-1.178 0,-4.674 -2.533,-6.725 -4.951,-6.725 -2.001,0 -3.258,1.2 -3.988,3.04 -0.18,-1.845 -0.547,-2.642 -1.62,-2.642 -0.46,0 -1.097,0.13 -1.783,0.462 0.314,1.03 0.436,3.315 0.436,4.819 0,5.62 -1.61,8.138 -3.16,8.138 -1.77,0 -2.052,-6.666 -2.2,-9.26 a 2.41,2.41 0 0 0 -0.868,-0.16 c -1.601,0 -1.81,2.152 -2.205,4.13 -0.438,2.192 -1.701,4.949 -3.571,4.949 -1.13,0 -1.835,-1.09 -1.923,-3.05 -0.184,-3.973 3.122,-8.682 8.295,-7.217 0.678,-1.583 -0.386,-2.788 -2.533,-2.788 -3.781,0 -6.907,2.83 -8.27,6.179 -1.384,3.07 -3.807,7.58 -8.735,7.58 -3.48,0 -6.142,-3.034 -6.142,-9.403 0,-5.49 3.46,-10.705 7.153,-10.705 2.583,0 3.182,2.54 2.955,4.926 1.336,1.075 3.532,0.076 3.532,-2.608 0,-1.85 -1.502,-4.986 -6.35,-4.986 -6.001,0 -11.303,5.984 -11.303,13.848 0,7.612 3.864,12.112 9.334,12.112 3.45,0 6.707,-1.97 8.955,-5.602 0.565,3.18 2.733,4.519 4.358,4.519 2.629,0 4.346,-1.701 5.284,-4.007 0.585,2.31 1.82,4.016 3.87,4.016 1.446,0 2.573,-0.731 3.422,-1.906 -0.336,8.023 -0.762,13.138 3.979,12.13 -0.732,-2.28 -0.966,-6.433 -0.966,-10.161 0,-10.203 1.683,-13.56 3.792,-13.56 1.528,0 2.023,1.948 2.023,4.026 0,1.113 -0.106,2.392 -0.39,3.547 -2.591,1.635 -4.661,2.925 -4.661,4.565 0,1.297 0.962,1.418 1.795,1.418 1.99,0 4.385,-1.953 5.709,-5.638 1.158,-0.7 2.318,-1.503 3.429,-2.596 -0.037,0.374 -0.06,0.75 -0.06,1.134 0,3.659 1.603,5.868 4.159,5.868 2.003,0 3.506,-1.42 4.566,-3.547 0.067,1.226 0.108,2.355 0.127,3.395 -4.063,1.877 -8.56,3.787 -8.56,9.087 0,2.742 1.98,4.807 4.56,4.807 5.66,0 6.95,-5.974 7.004,-12.914 1.842,-0.8 3.215,-1.416 4.799,-2.198 1.354,1.694 3.194,2.544 4.883,2.544 3.195,0 5.593,-1.693 7.52,-5.125 0.342,2.612 1.019,5.125 2.407,5.125 2.533,0 3.045,-13.24 4.929,-13.24 1.442,0 0.257,14.326 4.065,14.326 3.26,0 3.872,-12.607 5.459,-12.607 1.125,0 1.21,11.523 4.76,11.523 1.746,0 3.64,-2.098 4.59,-6.494 0.445,2.924 1.923,6.494 4.808,6.494 1.683,0 3.13,-1.703 4.247,-3.967 0.308,2.33 0.968,3.967 2.243,3.967 3.317,0 3.206,-13.212 5.832,-13.212 2.048,0 1.414,13.212 6.29,13.212 2.32,0 3.42,-1.978 4.074,-4.458 0.897,3.649 2.347,4.458 3.539,4.458 0.755,0 1.326,-0.266 2.074,-1.158 -3.77,-1.636 -3.453,-7.588 -3.453,-11.433 M 54.968,35.721 c -1.171,0 -1.79,-1.111 -1.79,-2.37 0,-3.387 2.488,-5.186 5.554,-6.73 -0.14,7.407 -1.861,9.1 -3.764,9.1 m 15.23,-24.01 c 1.14,0 1.793,1.047 1.68,2.553 -0.133,1.769 -1.42,3.792 -3.657,5.383 -1.17,-3.325 -0.3,-7.936 1.978,-7.936 m 36.123,-5.008 c 1.087,-0.037 1.846,-0.97 1.85,-2.08 0.004,-1.11 -0.746,-1.981 -1.833,-1.942 -1.087,0.037 -1.973,0.968 -1.978,2.079 -0.005,1.11 0.873,1.98 1.961,1.943 m 27.022,0.563 c 0.989,-0.035 1.796,-0.923 1.8,-1.98 0.005,-1.059 -0.794,-1.887 -1.785,-1.852 -0.991,0.036 -1.796,0.924 -1.801,1.981 -0.004,1.058 0.796,1.887 1.786,1.851 m 36.734,8.792 c -0.081,-4.187 -2.074,-7.72 -5.145,-10.54 -2.332,-2.13 -5.103,-3.747 -8.008,-4.965 A 28.877,28.877 0 0 0 156.22,0.266 h -0.001 c -3.577,4.285 -15.963,7.483 -15.963,16.467 0,3.512 2.218,6.796 5.475,8.114 1.888,0.714 3.777,0.753 5.667,0.118 1.68,-0.552 3.062,-1.594 4.211,-2.864 3.638,-4.022 5.118,-10.26 9.581,-10.26 4.084,0 4.634,2.907 4.895,4.481 0,-0.004 -0.002,-0.114 -0.007,-0.264"
     clip-path="url(#clipPath4527)"
     transform="matrix(1.4608646,0,0,1.4608646,-202.99603,-0.38858998)" />
</svg>
